{
    "data":
        {
            "list": [
                {
                    "id": "130",
                    "created": "2123-11-20T04:29:04.000Z",
                    "updated": "2024-08-15T16:36:28.000Z",
                    "status": "1",
                    "app": "0",
                    "number": "P130",
                    "title":
                        "傻厨电煎锅多功能家用不粘锅电饼铛一体锅烙饼锅电烤锅烤肉电烤锅",
                    "icon":
                        "https://gw.alicdn.com/bao/uploaded/i1/37617748/O1CN01N3gaMM276dQQkATWW_!!37617748.jpg_320x320q90.jpg_.webp",
                    "icons": [
                        "https://img.alicdn.com/imgextra/i1/37617748/O1CN01N3gaMM276dQQkATWW_!!37617748.jpg_640x640q80_.webp",
                        "https://img.alicdn.com/imgextra/i4/37617748/O1CN01DfTZxV276dbOeKdml_!!37617748.jpg_640x640q80_.webp",
                        "https://img.alicdn.com/imgextra/i3/37617748/O1CN01lZC79o276dbWeoTMd_!!37617748.jpg_640x640q80_.webp"
                    ],
                    "originPrice": 4,
                    "price": 3,
                    "memberPrice": 2,
                    "highlight": "粘不粘锅",
                    "detail":
                        "<img src=\"https://img.alicdn.com/imgextra/i2/37617748/TB25A4MwMxlpuFjSszbXXcSVpXa_!!37617748.jpg\"/><img src=\"https://img.alicdn.com/imgextra/i1/37617748/TB2NlvkwMxlpuFjy0FoXXa.lXXa_!!37617748.jpg\"/><img src=\"https://img.alicdn.com/imgextra/i2/37617748/TB23UhVwHXlpuFjy1zbXXb_qpXa_!!37617748.jpg\"/>",
                    "userId": "1",
                    "sale": 1,
                    "delete": 0,
                    "hot": 1,
                    "news": 1,
                    "recommend": 0,
                    "commentsRate": 100.0,
                    "commentsCount": 0,
                    "salesCount": 0,
                    "stocksCount": 0,
                    "sort": 100300,
                    "score": 5.0
                },
                {
                    "id": "30",
                    "created": "2123-11-19T04:29:04.000Z",
                    "updated": "2024-08-16T07:50:06.000Z",
                    "status": "1",
                    "app": "0",
                    "number": "P10",
                    "title": "米家即热饮水机2",
                    "icon": "mall/products/p10-icon.png",
                    "icons": [
                        "mall/products/p10-d1.jpg",
                        "mall/products/p10-d2.jpg",
                        "mall/products/p10-d3.jpg",
                        "mall/products/p10-d4.jpg",
                        "mall/products/p10-d5.jpg"
                    ],
                    "video": "mall/products/p10.mp4",
                    "keyword": "智能 即热 饮水机",
                    "category1Id": "4000",
                    "category2Id": "40000",
                    "category3Id": "400000",
                    "originPrice": 30000,
                    "price": 20000,
                    "memberPrice": 15000,
                    "highlight": "3秒即热，智能屏显",
                    "detail":
                        "<img src=\"https://rs.ixuea.com/quick/mall/products/p10-de1.jpg\"/><img src=\"https://rs.ixuea.com/quick/mall/products/p10-de2.jpg\"/><img src=\"https://rs.ixuea.com/quick/mall/products/p10-de3.jpg\"/><img src=\"https://rs.ixuea.com/quick/mall/products/p10-de4.jpg\"/><img src=\"https://rs.ixuea.com/quick/mall/products/p10-de5.jpg\"/><img src=\"https://rs.ixuea.com/quick/mall/products/p10-de20.jpg\"/><img src=\"https://rs.ixuea.com/quick/mall/products/p10-de21.jpg\"/><img src=\"https://rs.ixuea.com/quick/mall/products/p10-de22.jpg\"/><img src=\"https://rs.ixuea.com/quick/mall/products/pd2.jpg\"/><img src=\"https://rs.ixuea.com/quick/mall/products/pd1.png\"/>",
                    "userId": "2",
                    "sale": 1,
                    "delete": 0,
                    "hot": 1,
                    "news": 1,
                    "recommend": 1,
                    "commentsRate": 100.0,
                    "commentsCount": 0,
                    "salesCount": 0,
                    "stocksCount": 0,
                    "sort": 100020,
                    "score": 5.0
                },
                {
                    "id": "170",
                    "created": "2024-01-07T02:10:17.000Z",
                    "updated": "2024-01-10T03:42:16.000Z",
                    "status": "1",
                    "app": "0",
                    "number": "P170",
                    "title": "永和豆浆维他型豆奶粉代餐营养冲饮豆奶粉510g",
                    "icon":
                        "https://gw.alicdn.com/bao/uploaded/i1/6000000002837/O1CN01K1qckl1WpOXzGovTW_!!6000000002837-0-sm.jpg_320x320q90.jpg_.webp",
                    "icons": [
                        "https://img.alicdn.com/imgextra/i1/37617748/O1CN01N3gaMM276dQQkATWW_!!37617748.jpg_640x640q80_.webp",
                        "https://img.alicdn.com/imgextra/i4/37617748/O1CN01DfTZxV276dbOeKdml_!!37617748.jpg_640x640q80_.webp",
                        "https://img.alicdn.com/imgextra/i3/37617748/O1CN01lZC79o276dbWeoTMd_!!37617748.jpg_640x640q80_.webp"
                    ],
                    "originPrice": 3,
                    "price": 4,
                    "memberPrice": 2,
                    "detail":
                        "<img src=\"https://img.alicdn.com/imgextra/i2/37617748/TB25A4MwMxlpuFjSszbXXcSVpXa_!!37617748.jpg\"/><img src=\"https://img.alicdn.com/imgextra/i1/37617748/TB2NlvkwMxlpuFjy0FoXXa.lXXa_!!37617748.jpg\"/><img src=\"https://img.alicdn.com/imgextra/i2/37617748/TB23UhVwHXlpuFjy1zbXXb_qpXa_!!37617748.jpg\"/>",
                    "userId": "1",
                    "sale": 1,
                    "delete": 0,
                    "hot": 0,
                    "news": 1,
                    "recommend": 0,
                    "commentsRate": 100.0,
                    "commentsCount": 0,
                    "salesCount": 0,
                    "stocksCount": 0,
                    "sort": 101000,
                    "score": 5.0
                },
                {
                    "id": "160",
                    "created": "2024-01-07T02:10:17.000Z",
                    "updated": "2024-01-10T03:42:16.000Z",
                    "status": "1",
                    "app": "0",
                    "number": "P160",
                    "title":
                        "西铁城ct500计算器ct512太阳能财务会计存储办公用纽扣电池计算机",
                    "icon":
                        "https://gw.alicdn.com/bao/uploaded/i1/2731087732/O1CN01tJwzMX26zJEBE29Fm_!!2731087732.jpg_320x320q90.jpg_.webp",
                    "icons": [
                        "https://img.alicdn.com/imgextra/i1/37617748/O1CN01N3gaMM276dQQkATWW_!!37617748.jpg_640x640q80_.webp",
                        "https://img.alicdn.com/imgextra/i4/37617748/O1CN01DfTZxV276dbOeKdml_!!37617748.jpg_640x640q80_.webp",
                        "https://img.alicdn.com/imgextra/i3/37617748/O1CN01lZC79o276dbWeoTMd_!!37617748.jpg_640x640q80_.webp"
                    ],
                    "originPrice": 6,
                    "price": 4,
                    "memberPrice": 2,
                    "detail":
                        "<img src=\"https://img.alicdn.com/imgextra/i2/37617748/TB25A4MwMxlpuFjSszbXXcSVpXa_!!37617748.jpg\"/><img src=\"https://img.alicdn.com/imgextra/i1/37617748/TB2NlvkwMxlpuFjy0FoXXa.lXXa_!!37617748.jpg\"/><img src=\"https://img.alicdn.com/imgextra/i2/37617748/TB23UhVwHXlpuFjy1zbXXb_qpXa_!!37617748.jpg\"/>",
                    "userId": "1",
                    "sale": 1,
                    "delete": 0,
                    "hot": 0,
                    "news": 1,
                    "recommend": 0,
                    "commentsRate": 100.0,
                    "commentsCount": 0,
                    "salesCount": 0,
                    "stocksCount": 0,
                    "sort": 100600,
                    "score": 5.0
                },
                {
                    "id": "150",
                    "created": "2024-01-07T02:10:17.000Z",
                    "updated": "2024-01-10T03:42:16.000Z",
                    "status": "1",
                    "app": "0",
                    "number": "P150",
                    "title":
                        "利拉比利时风味焦糖黑饼干零食散装整箱批发早餐曲奇休闲解馋食品",
                    "icon":
                        "https://gw.alicdn.com/bao/uploaded/i2/2056503521/O1CN01h9cW171bsfRkAq5Jm_!!0-item_pic.jpg_320x320q90.jpg_.webp",
                    "icons": [
                        "https://img.alicdn.com/imgextra/i1/37617748/O1CN01N3gaMM276dQQkATWW_!!37617748.jpg_640x640q80_.webp",
                        "https://img.alicdn.com/imgextra/i4/37617748/O1CN01DfTZxV276dbOeKdml_!!37617748.jpg_640x640q80_.webp",
                        "https://img.alicdn.com/imgextra/i3/37617748/O1CN01lZC79o276dbWeoTMd_!!37617748.jpg_640x640q80_.webp"
                    ],
                    "originPrice": 5,
                    "price": 3,
                    "memberPrice": 4,
                    "detail":
                        "<img src=\"https://img.alicdn.com/imgextra/i2/37617748/TB25A4MwMxlpuFjSszbXXcSVpXa_!!37617748.jpg\"/><img src=\"https://img.alicdn.com/imgextra/i1/37617748/TB2NlvkwMxlpuFjy0FoXXa.lXXa_!!37617748.jpg\"/><img src=\"https://img.alicdn.com/imgextra/i2/37617748/TB23UhVwHXlpuFjy1zbXXb_qpXa_!!37617748.jpg\"/>",
                    "userId": "1",
                    "sale": 1,
                    "delete": 0,
                    "hot": 0,
                    "news": 1,
                    "recommend": 0,
                    "commentsRate": 100.0,
                    "commentsCount": 0,
                    "salesCount": 0,
                    "stocksCount": 0,
                    "sort": 100500,
                    "score": 5.0
                },
                {
                    "id": "140",
                    "created": "2024-01-07T02:10:17.000Z",
                    "updated": "2024-01-10T03:42:16.000Z",
                    "status": "1",
                    "app": "0",
                    "number": "P140",
                    "title":
                        "加多宝凉茶饮料310ml*6/组怕上火喝加多宝草本植物饮品",
                    "icon":
                        "https://gw.alicdn.com/bao/uploaded/i2/6000000005745/O1CN01t6ydMg1sJGJ5wPNjq_!!6000000005745-0-sm.jpg_320x320q90.jpg_.webp",
                    "icons": [
                        "https://img.alicdn.com/imgextra/i1/37617748/O1CN01N3gaMM276dQQkATWW_!!37617748.jpg_640x640q80_.webp",
                        "https://img.alicdn.com/imgextra/i4/37617748/O1CN01DfTZxV276dbOeKdml_!!37617748.jpg_640x640q80_.webp",
                        "https://img.alicdn.com/imgextra/i3/37617748/O1CN01lZC79o276dbWeoTMd_!!37617748.jpg_640x640q80_.webp"
                    ],
                    "originPrice": 4,
                    "price": 3,
                    "memberPrice": 3,
                    "detail":
                        "<img src=\"https://img.alicdn.com/imgextra/i2/37617748/TB25A4MwMxlpuFjSszbXXcSVpXa_!!37617748.jpg\"/><img src=\"https://img.alicdn.com/imgextra/i1/37617748/TB2NlvkwMxlpuFjy0FoXXa.lXXa_!!37617748.jpg\"/><img src=\"https://img.alicdn.com/imgextra/i2/37617748/TB23UhVwHXlpuFjy1zbXXb_qpXa_!!37617748.jpg\"/>",
                    "userId": "1",
                    "sale": 1,
                    "delete": 0,
                    "hot": 0,
                    "news": 1,
                    "recommend": 0,
                    "commentsRate": 100.0,
                    "commentsCount": 0,
                    "salesCount": 0,
                    "stocksCount": 0,
                    "sort": 100400,
                    "score": 5.0
                },
                {
                    "id": "120",
                    "created": "2024-01-07T02:04:09.000Z",
                    "updated": "2024-01-10T03:42:16.000Z",
                    "status": "1",
                    "app": "0",
                    "number": "P120",
                    "title":
                        "【错题免抄神器】印先森官方M02s高清错题打印机照片智能小学初高中生便携小型整理手机蓝牙家用错题扫描打印",
                    "icon":
                        "https://gw.alicdn.com/bao/uploaded/i1/2201304297697/O1CN01nylsjF26jHQhnhBBh_!!0-item_pic.jpg_320x320q90.jpg",
                    "icons": [
                        "https://img.alicdn.com/imgextra/i2/2201304297697/O1CN01I2m7CA26jHQwZk0A1_!!2201304297697.jpg_640x640q80_.webp",
                        "https://img.alicdn.com/imgextra/i2/2201304297697/O1CN01I2m7CA26jHQwZk0A1_!!2201304297697.jpg_640x640q80_.webp",
                        "https://img.alicdn.com/imgextra/i1/2201304297697/O1CN01UXTdcq26jHKVx5FqK_!!2201304297697.jpg_640x640q80_.webp"
                    ],
                    "originPrice": 3,
                    "price": 2,
                    "memberPrice": 1,
                    "detail":
                        "<img src=\"https://img.alicdn.com/imgextra/i3/2201304297697/O1CN01X4r6bE26jHH7G0kYx_!!2201304297697.jpg\"/><img src=\"https://img.alicdn.com/imgextra/i2/2201304297697/O1CN01o6cvjE26jHFqAxHc0_!!2201304297697.jpg\"/><img src=\"https://img.alicdn.com/imgextra/i3/2201304297697/O1CN019Ve4O026jHLTJKsND_!!2201304297697.jpg\"/>",
                    "userId": "1",
                    "sale": 1,
                    "delete": 0,
                    "hot": 0,
                    "news": 1,
                    "recommend": 0,
                    "commentsRate": 100.0,
                    "commentsCount": 0,
                    "salesCount": 0,
                    "stocksCount": 0,
                    "sort": 100200,
                    "score": 5.0
                },
                {
                    "id": "110",
                    "created": "2024-01-07T01:48:05.000Z",
                    "updated": "2024-01-10T03:42:16.000Z",
                    "status": "1",
                    "app": "0",
                    "number": "P110",
                    "title":
                        "卡姿兰（Carslan）粉悦木马口红礼盒雾感哑光唇膏不易沾杯mini6支套装 圣诞礼物",
                    "icon":
                        "https://img14.360buyimg.com/mobilecms/s360x360_jfs/t1/226888/38/9947/71476/658b8f8aF29a07a5d/a74fe20de01ee22c.jpg!q70.dpg.webp",
                    "icons": [
                        "https://m.360buyimg.com/mobilecms/s750x750_jfs/t1/226888/38/9947/71476/658b8f8aF29a07a5d/a74fe20de01ee22c.jpg!q80.dpg.webp",
                        "https://m.360buyimg.com/mobilecms/s843x843_jfs/t1/245526/20/1907/88438/6594ccadFb33c2ebc/4557808255bea702.png.webp",
                        "https://m.360buyimg.com/mobilecms/s843x843_jfs/t1/224017/2/35729/89677/6551b8a8Fb314eabf/75bc25c35083bcda.jpg!q70.dpg.webp"
                    ],
                    "originPrice": 4,
                    "price": 3,
                    "memberPrice": 2,
                    "detail":
                        "<img src=\"https://img30.360buyimg.com/sku/jfs/t1/245797/12/1261/87801/658e9088Fa934e5ff/4be52c50fb4f72ac.jpg\"/><img src=\"https://img30.360buyimg.com/sku/jfs/t1/237843/1/2601/100497/6551b8ceF2caf5ef7/a252d048b558a737.jpg\"/><img src=\"https://img30.360buyimg.com/sku/jfs/t1/237415/7/2821/53538/6551b8eaFc0684c54/4dff8d9eedc7b08e.jpg\"/>",
                    "userId": "1",
                    "sale": 1,
                    "delete": 0,
                    "hot": 0,
                    "news": 1,
                    "recommend": 0,
                    "commentsRate": 100.0,
                    "commentsCount": 0,
                    "salesCount": 0,
                    "stocksCount": 0,
                    "sort": 100100,
                    "score": 5.0
                },
                {
                    "id": "100",
                    "created": "2024-01-07T01:30:01.000Z",
                    "updated": "2024-01-10T03:42:16.000Z",
                    "status": "1",
                    "app": "0",
                    "number": "P100",
                    "title":
                        "白象大骨面方便面原汁猪骨方便面75g装装泡面速食 原汁猪骨面 75g*3包",
                    "icon":
                        "https://img14.360buyimg.com/mobilecms/s360x360_jfs/t1/19220/33/21330/190253/6528cdb2Fb058722a/32334c2992434aee.png",
                    "icons": [
                        "https://m.360buyimg.com/mobilecms/s843x843_jfs/t1/225786/5/85/194445/6528cdb1Fa87cb618/70577ab55e587af2.jpg!q70.dpg.webp",
                        "https://m.360buyimg.com/mobilecms/s843x843_jfs/t1/…28cdb2F7faff651/b47da7fc35069807.jpg!q70.dpg.webp",
                        "https://m.360buyimg.com/mobilecms/s843x843_jfs/t1/…28cdc8Fff5c8b3f/44c597007ef55b35.jpg!q70.dpg.webp"
                    ],
                    "originPrice": 4,
                    "price": 5,
                    "memberPrice": 2,
                    "detail":
                        "<img src=\"https://img30.360buyimg.com/popWareDetail/jfs/t1/182726/26/40232/208945/6528cebdF0b33a0ea/be8095fd03d3da0c.jpg!q70.dpg.webp\"/><img src=\"https://img30.360buyimg.com/popWareDetail/jfs/t1/10713/2/22944/144448/6528cebdF6ede115e/ac361e88b4e1ce79.jpg!q70.dpg.webp\"/><img src=\"https://img30.360buyimg.com/popWareDetail/jfs/t1/186652/8/40097/166851/6528cebdF90fcbeed/1748634afbd5fe59.jpg!q70.dpg.webp\"/>",
                    "userId": "1",
                    "sale": 1,
                    "delete": 0,
                    "hot": 0,
                    "news": 1,
                    "recommend": 1,
                    "commentsRate": 100.0,
                    "commentsCount": 0,
                    "salesCount": 0,
                    "stocksCount": 0,
                    "sort": 100090,
                    "score": 5.0
                },
                {
                    "id": "90",
                    "created": "2024-01-07T01:18:59.000Z",
                    "updated": "2024-01-10T03:42:16.000Z",
                    "status": "1",
                    "app": "0",
                    "number": "P90",
                    "title":
                        "352无雾加湿器空气净化一体机家用卧室婴儿用客厅办公室落地式大容量大面积2500ml极速加湿 H300",
                    "icon":
                        "https://img14.360buyimg.com/mobilecms/s360x360_jfs/t1/236829/28/10880/159094/65967fa9Fd41298a5/7a39a1b0574a921b.jpg",
                    "icons": [
                        "https://m.360buyimg.com/mobilecms/s750x750_jfs/t1/236829/28/10880/159094/65967fa9Fd41298a5/7a39a1b0574a921b.jpg",
                        "https://m.360buyimg.com/mobilecms/s843x843_jfs/t1/231738/35/9757/56443/658921b5F092cd3e1/a48520dfd63f3ce2.jpg",
                        "https://m.360buyimg.com/mobilecms/s843x843_jfs/t1/224413/18/4934/100227/65669d52F1dcb1bf0/70409a2b394b8f9e.jpg"
                    ],
                    "originPrice": 5,
                    "price": 4,
                    "memberPrice": 3,
                    "detail":
                        "<img src=\"https://img30.360buyimg.com/sku/jfs/t1/231018/19/11340/914272/65952a2bFfd471c74/ae613fb402b5d88a.gif\"/><img src=\"https://img30.360buyimg.com/sku/jfs/t1/224202/36/9600/985815/657fdf4fF17e8132c/2f3bd9f886fa1c56.gif\"/><img src=\"https://img30.360buyimg.com/sku/jfs/t1/97293/23/35579/691829/656d85b1F690fe366/3be4e97909726999.gif\"/>",
                    "userId": "1",
                    "sale": 1,
                    "delete": 0,
                    "hot": 0,
                    "news": 1,
                    "recommend": 1,
                    "commentsRate": 100.0,
                    "commentsCount": 0,
                    "salesCount": 0,
                    "stocksCount": 0,
                    "sort": 100080,
                    "score": 5.0
                }
            ],
            "pagination": {
                "total": 20,
                "pages": 2,
                "size": 10,
                "page": 1,
                "next": 2
            }
        },
    "status": 0
}
